<svg xmlns="http://www.w3.org/2000/svg" width="160" height="28" viewBox="0 0 160 28">
    <g fill="none" fill-rule="evenodd">
        <g fill="#FFF" fill-rule="nonzero">
            <g>
                <g>
                    <g>
                        <path d="M159.716 15.273c0-6.6-5.35-11.95-11.949-11.95s-11.949 5.35-11.949 11.95c0 6.599 5.35 11.949 11.95 11.949 3.168 0 6.208-1.26 8.449-3.5 2.24-2.24 3.5-5.28 3.5-8.45zm-18.181 0c0-3.436 2.785-6.222 6.221-6.222 3.437 0 6.222 2.786 6.222 6.222 0 3.436-2.785 6.222-6.222 6.222-3.432-.006-6.21-2.79-6.21-6.222h-.011zM5.633 21.593V3.273H0V27.21c1.492.003 2.924-.588 3.981-1.642 1.057-1.053 1.65-2.484 1.652-3.976zM46.91 21.596h-2.94c-2.26.031-4.361-1.164-5.49-3.124-1.128-1.96-1.107-4.377.056-6.317 1.162-1.94 3.284-3.098 5.544-3.028h2.585c3.234-.002 5.856-2.62 5.862-5.854h-8.436c-5.956 0-11.135 4.298-11.978 10.182-.513 3.446.5 6.944 2.774 9.583 2.275 2.64 5.585 4.157 9.07 4.158h8.57c-.008-3.096-2.521-5.602-5.618-5.6zM29.324 15.193c-.006-6.585-5.346-11.92-11.931-11.92H9.287V27.21h5.622V9.13h2.578c3.434 0 6.218 2.784 6.218 6.218v11.862h5.619V15.193zM125.916 21.502v-6.258c0-3.437 2.786-6.222 6.222-6.222h2.953v-5.71h-2.953c-6.59 0-11.93 5.342-11.93 11.932V27.21c3.152 0 5.708-2.556 5.708-5.71zM98.247 15.193c-.006-6.584-5.343-11.918-11.927-11.92h-8.6V27.21h5.622V9.13h3.065c1.65-.001 3.232.654 4.398 1.82 1.167 1.166 1.821 2.749 1.82 4.398v11.862h5.622V15.193zM68.28 21.596h-2.938c-1.13.009-2.242-.291-3.215-.869 6.369-.14 11.528-5.212 11.775-11.578V3.273h-8.447c-6.044 0-11.273 4.44-12 10.436-.44 3.415.61 6.854 2.883 9.44 2.274 2.586 5.55 4.068 8.993 4.07h8.57c.003-1.492-.589-2.923-1.644-3.978-1.054-1.055-2.485-1.647-3.977-1.645zm-9.09-7.272c.496-3.004 3.093-5.207 6.137-5.208h2.79c-.146 2.063-1.302 3.92-3.088 4.963-1.787 1.042-3.973 1.133-5.84.245zM116.462 21.502h-3.637c-1.652.002-3.237-.654-4.405-1.823-1.168-1.168-1.823-2.754-1.82-4.406v-.728h2.127c1.46.001 2.86-.578 3.893-1.61s1.613-2.432 1.613-3.891h-7.637V5.97c-.171-3.105-2.61-5.607-5.709-5.858V15.273c0 6.587 5.34 11.927 11.928 11.927h3.636l.01-5.698z" transform="translate(-383 -4710) translate(353 4412) translate(0 174) translate(30 124)"/>
                    </g>
                </g>
            </g>
        </g>
    </g>
</svg>
