<?xml version="1.0" encoding="UTF-8"?>
<svg width="60px" height="30px" viewBox="0 0 60 30" version="1.1" xmlns="http://www.w3.org/2000/svg" xmlns:xlink="http://www.w3.org/1999/xlink">
    <title>D82BBBF0-67A1-421A-B113-315EBB443B4E</title>
    <g id="Home" stroke="none" stroke-width="1" fill="none" fill-rule="evenodd">
        <g id="Follow-the-beat-goodbye-2020-desktop-2" transform="translate(-40.000000, -151.000000)" fill="#FFFFFF" fill-rule="nonzero">
            <g id="Menu" transform="translate(40.000000, 146.000000)">
                <path d="M0.310880842,35 L0.310880842,16.25 L7.4778066,16.25 C11.3654008,16.25 13.7455608,18.0714287 13.7455608,21.3392858 C13.7455608,23.0535715 13.0579592,24.2857144 11.7620942,25.169643 C13.5339911,25.9732143 14.3273776,27.4999999 14.3273776,29.3214287 C14.3273776,33.2589286 11.3125085,35 7.61003765,35 L0.310880842,35 Z M5.54723259,23.3482142 L7.08111315,23.3482142 C7.92739235,23.3482142 8.37697809,22.7589284 8.37697809,21.9821428 C8.37697809,21.2321427 7.92739235,20.6964284 7.02822086,20.6964284 L5.54723259,20.6964284 L5.54723259,23.3482142 Z M5.54723259,30.5267858 L7.42491399,30.5267858 C8.37697809,30.5267858 8.93234873,29.7232141 8.93234873,28.9999999 C8.93234873,28.25 8.42987038,27.4999999 7.50425275,27.4999999 L5.54723259,27.4999999 L5.54723259,30.5267858 Z M17.6067089,35 L33.0574675,35 L34.0924218,31.4844084 L40.1562741,31.4844084 L38.693245,26.721767 L31.1389604,26.6409054 L29.9659798,30.3392858 L22.8695067,30.3392858 L22.8695067,26.6409054 L31.1389604,26.6409054 L32.0525111,23.2142857 L22.7822421,23.2142857 L22.7822421,20.9107142 L36.9081622,20.9107142 L41.2357817,35 L46.4683275,35 L40.1543033,16.25 L17.6067089,16.25 L17.6067089,35 Z M50.9025003,35 L50.9025003,20.9107142 L47.1206907,20.9107142 L47.1206907,16.25 L60,16.25 L60,20.9107142 L56.1652981,20.9107142 L56.1652981,35 L50.9025003,35 Z M0,12.3657023 L0,5.13429743 L4.01656504,5.13429743 L4.01656504,6.93181831 L2.0547467,6.93181831 L2.0547467,7.94421499 L3.75843113,7.94421499 L3.75843113,9.73140488 L2.0547467,9.73140488 L2.0547467,12.3657023 L0,12.3657023 Z M8.45180676,12.5 C6.06664863,12.5 4.54882061,10.857438 4.54882061,8.73966953 C4.54882061,6.65289246 6.06664863,5 8.45180676,5 C10.8369649,5 12.3547926,6.65289246 12.3547926,8.73966953 C12.3547926,10.857438 10.8369649,12.5 8.45180676,12.5 Z M8.45180676,6.88016527 C7.39861992,6.88016527 6.69649536,7.68595048 6.69649536,8.73966953 C6.69649536,9.82438027 7.39861992,10.6198348 8.45180676,10.6198348 C9.50499328,10.6198348 10.2071178,9.82438027 10.2071178,8.73966953 C10.2071178,7.68595048 9.50499328,6.88016527 8.45180676,6.88016527 Z M13.1245315,12.3657023 L13.1245315,5.13429743 L15.1792782,5.13429743 L15.1792782,10.5681818 L17.2546755,10.5681818 L17.2546755,12.3657023 L13.1245315,12.3657023 Z M17.9005103,12.3657023 L17.9005103,5.13429743 L19.955257,5.13429743 L19.955257,10.5681818 L22.0306542,10.5681818 L22.0306542,12.3657023 L17.9005103,12.3657023 Z M26.01158,12.5 C23.6264219,12.5 22.1085939,10.857438 22.1085939,8.73966953 C22.1085939,6.65289246 23.6264219,5 26.01158,5 C28.3967381,5 29.9145661,6.65289246 29.9145661,8.73966953 C29.9145661,10.857438 28.3967381,12.5 26.01158,12.5 Z M26.01158,6.88016527 C24.9583932,6.88016527 24.2562689,7.68595048 24.2562689,8.73966953 C24.2562689,9.82438027 24.9583932,10.6198348 26.01158,10.6198348 C27.0647668,10.6198348 27.7668911,9.82438027 27.7668911,8.73966953 C27.7668911,7.68595048 27.0647668,6.88016527 26.01158,6.88016527 Z M36.2186978,12.3657023 L35.1861619,8.21280985 L34.1536259,12.3657023 L31.8200944,12.3657023 L29.9512044,5.13429743 L32.1505061,5.13429743 L33.1107646,9.93801668 L34.2672048,5.13429743 L36.1051189,5.13429743 L37.2615591,9.93801668 L38.2218176,5.13429743 L40.4211193,5.13429743 L38.5419037,12.3657023 L36.2186978,12.3657023 Z M44.0876214,12.3657023 L44.0876214,6.93181831 L42.6110948,6.93181831 L42.6110948,5.13429743 L47.6395449,5.13429743 L47.6395449,6.93181831 L46.1423678,6.93181831 L46.1423678,12.3657023 L44.0876214,12.3657023 Z M48.3370064,12.3657023 L48.3370064,5.13429743 L50.3917531,5.13429743 L50.3917531,7.8512396 L52.6839829,7.8512396 L52.6839829,5.13429743 L54.7387296,5.13429743 L54.7387296,12.3657023 L52.6839829,12.3657023 L52.6839829,9.65909083 L50.3917531,9.65909083 L50.3917531,12.3657023 L48.3370064,12.3657023 Z M55.8698561,12.3657023 L55.8698561,5.13429743 L59.9173972,5.13429743 L59.9173972,6.93181831 L57.9246028,6.93181831 L57.9246028,7.82024791 L59.6076363,7.82024791 L59.6076363,9.60743812 L57.9246028,9.60743812 L57.9246028,10.5681818 L60,10.5681818 L60,12.3657023 L55.8698561,12.3657023 Z" id="logo"></path>
            </g>
        </g>
    </g>
</svg>